<?xml version="1.0" standalone="no"?>
<!DOCTYPE svg PUBLIC "-//W3C//DTD SVG 20010904//EN"
 "http://www.w3.org/TR/2001/REC-SVG-20010904/DTD/svg10.dtd">
<svg version="1.0" xmlns="http://www.w3.org/2000/svg"
 width="1435.000000pt" height="1435.000000pt" viewBox="0 0 1435.000000 1435.000000"
 preserveAspectRatio="xMidYMid meet">
<metadata>
Created by potrace 1.14, written by Peter Selinger 2001-2017
</metadata>
<g transform="translate(0.000000,1435.000000) scale(0.100000,-0.100000)"
fill="#000000" stroke="none">
<path d="M2112 12251 l-2092 -2098 0 -2974 0 -2974 2093 -2093 2092 -2092
2975 0 2975 0 2093 2093 2092 2092 0 2975 0 2975 -2097 2098 -2097 2097 -2970
-1 -2971 -1 -2093 -2097z m9331 -809 l1767 -1767 0 -2495 0 -2495 -1767 -1767
-1768 -1768 -2495 0 -2495 0 -1768 1768 -1767 1767 0 2495 0 2495 1767 1767
1768 1768 2495 0 2495 0 1768 -1768z"/>
<path d="M6275 12670 c-22 -4 -73 -13 -112 -20 -62 -10 -73 -15 -73 -32 0 -11
158 -913 350 -2005 193 -1092 349 -1987 348 -1989 -2 -1 -333 905 -737 2014
-403 1109 -736 2020 -740 2023 -3 3 -57 -12 -119 -35 -99 -35 -113 -43 -109
-61 2 -11 325 -900 717 -1975 789 -2165 754 -2068 742 -2055 -5 6 -476 820
-1047 1810 -571 990 -1039 1802 -1041 1804 -2 2 -53 -25 -113 -59 -104 -58
-110 -63 -99 -83 10 -20 2021 -3503 2070 -3587 21 -34 21 -35 1 -15 -11 11
-584 693 -1273 1515 -689 822 -1265 1508 -1280 1523 l-27 28 -92 -77 c-50 -42
-91 -80 -89 -85 2 -7 1142 -1366 2433 -2903 87 -104 154 -187 148 -183 -6 4
-703 588 -1549 1297 -845 710 -1540 1290 -1543 1289 -3 0 -42 -43 -85 -95 -67
-81 -77 -97 -65 -108 8 -7 687 -577 1509 -1266 822 -689 1506 -1264 1520
-1278 l25 -25 -25 15 c-14 8 -815 471 -1780 1028 -965 557 -1769 1021 -1786
1031 l-30 18 -62 -107 c-55 -95 -60 -108 -46 -119 9 -6 821 -476 1805 -1044
984 -568 1787 -1034 1785 -1036 -1 -2 -905 325 -2007 726 -1102 401 -2010 731
-2017 733 -15 3 -105 -222 -94 -233 10 -9 4057 -1479 4072 -1479 8 0 11 -2 8
-5 -3 -3 -911 155 -2018 350 -1108 195 -2017 355 -2020 355 -8 0 -48 -240 -41
-244 3 -2 912 -162 2019 -357 l2012 -354 -2020 -3 -2020 -2 0 -125 0 -125
2011 -2 2010 -3 -2008 -354 c-1104 -195 -2010 -355 -2012 -357 -5 -5 32 -222
40 -236 5 -8 577 89 1981 336 1085 192 1987 350 2003 353 17 2 -872 -325
-1975 -726 -1103 -402 -2015 -735 -2026 -740 -22 -10 -22 -10 21 -128 28 -77
48 -117 57 -116 7 2 915 331 2017 733 1103 401 2006 728 2008 726 2 -2 -802
-468 -1787 -1037 -984 -568 -1790 -1038 -1790 -1043 0 -13 113 -206 122 -206
3 0 802 460 1775 1021 2079 1201 1863 1077 1838 1052 -11 -11 -695 -586 -1520
-1278 -825 -691 -1513 -1270 -1529 -1285 l-29 -28 79 -95 78 -95 151 127 c149
127 2882 2419 2920 2450 27 22 111 123 -1295 -1552 -696 -830 -1266 -1512
-1268 -1517 -4 -10 17 -29 124 -118 l61 -51 1288 1534 c708 844 1289 1535
1291 1535 2 0 -22 -44 -53 -97 -31 -54 -499 -864 -1040 -1801 -541 -937 -983
-1706 -983 -1710 0 -4 48 -36 107 -70 88 -50 110 -59 118 -48 6 8 474 817
1040 1799 567 982 1031 1784 1032 1783 1 -1 -326 -904 -727 -2007 -402 -1102
-730 -2009 -730 -2014 0 -9 230 -100 235 -93 1 2 332 911 736 2020 403 1109
735 2016 737 2014 1 -2 -155 -897 -348 -1990 -192 -1093 -350 -1993 -350
-2000 0 -15 232 -59 240 -46 3 5 163 903 355 1997 l350 1988 5 -2000 5 -2000
128 -3 127 -3 1 2018 1 2018 355 -2010 c195 -1105 357 -2012 358 -2014 5 -4
237 37 243 44 3 2 -154 903 -348 2000 -193 1098 -350 1998 -348 2000 1 2 329
-893 727 -1988 399 -1096 731 -2006 738 -2023 l12 -31 116 41 c63 22 115 46
115 51 0 6 -331 919 -735 2030 -404 1110 -734 2020 -732 2021 1 1 468 -805
1037 -1792 569 -986 1038 -1794 1042 -1794 3 0 54 27 112 61 l106 61 -19 31
c-61 101 -2061 3570 -2059 3572 2 1 584 -690 1293 -1536 710 -846 1292 -1539
1295 -1539 3 0 47 34 98 76 80 66 90 79 80 93 -7 9 -585 698 -1283 1531 -699
833 -1275 1522 -1280 1530 -5 8 7 1 27 -15 20 -17 711 -597 1537 -1290 826
-693 1505 -1261 1509 -1263 5 -1 44 39 87 89 54 64 75 96 69 105 -5 7 -684
578 -1509 1269 -825 692 -1511 1268 -1525 1281 -14 14 787 -444 1778 -1016
992 -573 1805 -1040 1806 -1038 16 22 127 220 124 222 -1 1 -805 465 -1786
1031 -980 565 -1781 1030 -1779 1032 2 1 901 -324 1998 -723 1097 -400 2001
-727 2009 -728 16 -1 104 224 92 235 -4 3 -908 334 -2009 734 -1102 401 -2001
730 -1999 733 3 2 892 -152 1976 -343 1084 -192 1973 -346 1975 -343 7 6 48
238 44 243 -2 1 -902 161 -1999 354 -1097 193 -2008 355 -2025 360 -18 5 769
9 2003 10 l2032 1 0 115 0 115 -2022 0 c-1112 0 -2019 2 -2017 4 2 3 913 165
2023 360 1111 196 2021 358 2023 359 1 2 -7 58 -19 125 -17 96 -24 122 -37
122 -9 0 -909 -157 -2000 -350 -1092 -192 -1986 -348 -1988 -347 -2 2 904 334
2013 737 1108 404 2017 737 2019 741 3 3 -14 59 -37 123 -33 94 -44 116 -57
111 -18 -7 -3922 -1429 -3986 -1452 -22 -7 -35 -10 -30 -5 6 5 816 474 1800
1042 985 568 1791 1033 1791 1034 4 3 -122 216 -127 216 -4 0 -813 -466 -1800
-1036 -986 -569 -1798 -1038 -1804 -1041 -31 -17 157 141 1540 1302 831 697
1509 1272 1509 1279 -2 17 -146 187 -155 184 -5 -2 -686 -572 -1515 -1268
-830 -696 -1522 -1276 -1538 -1290 -17 -14 71 97 196 245 124 149 706 842
1292 1540 586 699 1066 1273 1066 1277 0 10 -176 158 -188 158 -6 0 -581 -680
-1278 -1512 -698 -832 -1280 -1524 -1292 -1538 l-24 -25 20 35 c53 94 2047
3548 2058 3565 13 20 8 24 -94 83 -96 55 -108 60 -119 46 -7 -9 -479 -826
-1050 -1815 -571 -988 -1039 -1796 -1040 -1795 -1 1 331 915 737 2031 407
1117 738 2035 736 2040 -5 15 -216 89 -226 79 -5 -5 -342 -925 -750 -2044
-408 -1119 -739 -2024 -736 -2010 28 143 707 4022 705 4025 -6 5 -241 47 -244
43 -1 -2 -163 -907 -358 -2013 l-355 -2010 -1 2013 -1 2012 -125 0 -125 0 -2
-2022 -3 -2022 -354 2009 c-195 1106 -356 2016 -359 2023 -2 6 -7 12 -11 11
-3 -1 -24 -5 -46 -9z"/>
</g>
</svg>
